{
	"name": "Evento",
	"slug": "evento",
	"namespace": "Evento",
	"version": "1.0",
	"author": "Maykol Purica",
	"license": "MIT",
	"description": "Este es el modulo de evento. Los eventos son los contratos realizados por un cliente."
}
