{
	"name": "Blog",
	"slug": "blog",
	"namespace": "Blog",
	"version": "1.0",
	"author": "Maykol Purica",
	"license": "MIT",
	"description": "Modulo de ejemplo de la nueva version de caffeinated modules"
}
